Understanding World Population Dynamics
…
Write reusable function to compute ASDR

# Function to compute Age specific death rate (ASDR). Indents fixed and population_data name used. Spaced out around operators
compute_asdr <- function(population_data) {
  population_data %>% 
    mutate(asdr = deaths / py)
}

Apply reusable function, add () around call to observe in output

# Compute ASDR for each data set. Sweden variable renamed.
(world_data  <- compute_asdr(world_data))

# A tibble: 30 × 10
   country period    age    births  deaths py.men py.women     py   asfr    asdr
   <chr>   <chr>     <chr>   <dbl>   <dbl>  <dbl>    <dbl>  <dbl>  <dbl>   <dbl>
 1 WORLD   1950-1955 0-4        0  101090. 9.47e5  904909. 1.85e6 0      0.0546 
 2 WORLD   1950-1955 5-9        0    7961. 7.27e5  694575. 1.42e6 0      0.00560
 3 WORLD   1950-1955 10-14      0    5550. 6.67e5  635492. 1.30e6 0      0.00426
 4 WORLD   1950-1955 15-19  54238.   5831. 6.26e5  600678. 1.23e6 0.0903 0.00475
 5 WORLD   1950-1955 20-24 131939.   6649. 5.74e5  555221. 1.13e6 0.238  0.00589
 6 WORLD   1950-1955 25-29 128063.   6425. 5.09e5  507277. 1.02e6 0.252  0.00633
 7 WORLD   1950-1955 30-34  89247.   6209. 4.33e5  437132. 8.70e5 0.204  0.00713
 8 WORLD   1950-1955 35-39  56006.   6877. 4.00e5  405528. 8.06e5 0.138  0.00853
 9 WORLD   1950-1955 40-44  24327.   7995. 3.74e5  382444. 7.56e5 0.0636 0.0106 
10 WORLD   1950-1955 45-49   5072.   8886. 3.26e5  333889. 6.60e5 0.0152 0.0135 
# ℹ 20 more rows

(kenya_data  <- compute_asdr(kenya_data))

# A tibble: 30 × 11
   country period    age   births deaths py.men py.women     l_x    py   asfr
   <chr>   <chr>     <chr>  <dbl>  <dbl>  <dbl>    <dbl>   <dbl> <dbl>  <dbl>
 1 KEN     1950-1955 0-4      0    398.   2983.    2978. 100000  5960. 0     
 2 KEN     1950-1955 5-9      0     36.8  1978.    1970.  75157. 3948. 0     
 3 KEN     1950-1955 10-14    0     19.5  1635.    1634.  71365. 3269. 0     
 4 KEN     1950-1955 15-19  264.    18.5  1589.    1565.  69469. 3153. 0.169 
 5 KEN     1950-1955 20-24  486.    21.4  1428.    1364.  67421. 2792. 0.356 
 6 KEN     1950-1955 25-29  383.    20.4  1205.    1106.  64855. 2311. 0.347 
 7 KEN     1950-1955 30-34  269.    19.0  1033.     928.  62127. 1961. 0.289 
 8 KEN     1950-1955 35-39  166.    18.9   913.     803.  59239. 1716. 0.206 
 9 KEN     1950-1955 40-44   79.6   19.3   817.     711.  56114. 1528. 0.112 
10 KEN     1950-1955 45-49   25.6   19.9   693.     655.  52678. 1347. 0.0391
# ℹ 20 more rows
# ℹ 1 more variable: asdr <dbl>

(sweden_data <- compute_asdr(sweden_data))

# A tibble: 30 × 11
   country period    age   births deaths py.men py.women     l_x    py    asfr
   <chr>   <chr>     <chr>  <dbl>  <dbl>  <dbl>    <dbl>   <dbl> <dbl>   <dbl>
 1 SWE     1950-1955 0-4     0     13.8   1490.    1411. 100000  2901. 0      
 2 SWE     1950-1955 5-9     0      1.30  1543.    1471.  97575. 3014. 0      
 3 SWE     1950-1955 10-14   0      1.22  1266.    1217.  97308. 2483. 0      
 4 SWE     1950-1955 15-19  40.8    1.58  1078.    1049.  97094. 2127. 0.0389 
 5 SWE     1950-1955 20-24 141.     2.26  1119.    1105.  96734. 2225. 0.128  
 6 SWE     1950-1955 25-29 161.     2.88  1305.    1285.  96224. 2590. 0.125  
 7 SWE     1950-1955 30-34 117.     3.61  1367.    1338.  95692. 2705. 0.0874 
 8 SWE     1950-1955 35-39  64.8    4.70  1366.    1333.  95042. 2699. 0.0486 
 9 SWE     1950-1955 40-44  21.8    6.81  1367.    1346.  94214. 2713. 0.0162 
10 SWE     1950-1955 45-49   1.70  10.0   1256.    1268.  93038. 2525. 0.00134
# ℹ 20 more rows
# ℹ 1 more variable: asdr <dbl>
…
# Function to compute population proportion by period. I renamed popP because I liked pop_prop better. The last 3 lines will not nest indented, so I left it?
compute_pop_prop <- function(population_data) {
  population_data %>% 
    group_by(period) %>%
    mutate(pop_prop = py / sum(py)) %>%
    ungroup()
}

Next, apply that function to each dataset and assign it

# Compute population proportion for each data set. Spaces before assignment. Add () to display output
(world_data <- compute_pop_prop(world_data))

# A tibble: 30 × 11
   country period    age    births  deaths py.men py.women     py   asfr    asdr
   <chr>   <chr>     <chr>   <dbl>   <dbl>  <dbl>    <dbl>  <dbl>  <dbl>   <dbl>
 1 WORLD   1950-1955 0-4        0  101090. 9.47e5  904909. 1.85e6 0      0.0546 
 2 WORLD   1950-1955 5-9        0    7961. 7.27e5  694575. 1.42e6 0      0.00560
 3 WORLD   1950-1955 10-14      0    5550. 6.67e5  635492. 1.30e6 0      0.00426
 4 WORLD   1950-1955 15-19  54238.   5831. 6.26e5  600678. 1.23e6 0.0903 0.00475
 5 WORLD   1950-1955 20-24 131939.   6649. 5.74e5  555221. 1.13e6 0.238  0.00589
 6 WORLD   1950-1955 25-29 128063.   6425. 5.09e5  507277. 1.02e6 0.252  0.00633
 7 WORLD   1950-1955 30-34  89247.   6209. 4.33e5  437132. 8.70e5 0.204  0.00713
 8 WORLD   1950-1955 35-39  56006.   6877. 4.00e5  405528. 8.06e5 0.138  0.00853
 9 WORLD   1950-1955 40-44  24327.   7995. 3.74e5  382444. 7.56e5 0.0636 0.0106 
10 WORLD   1950-1955 45-49   5072.   8886. 3.26e5  333889. 6.60e5 0.0152 0.0135 
# ℹ 20 more rows
# ℹ 1 more variable: pop_prop <dbl>

(kenya_data <- compute_pop_prop(kenya_data))

# A tibble: 30 × 12
   country period    age   births deaths py.men py.women     l_x    py   asfr
   <chr>   <chr>     <chr>  <dbl>  <dbl>  <dbl>    <dbl>   <dbl> <dbl>  <dbl>
 1 KEN     1950-1955 0-4      0    398.   2983.    2978. 100000  5960. 0     
 2 KEN     1950-1955 5-9      0     36.8  1978.    1970.  75157. 3948. 0     
 3 KEN     1950-1955 10-14    0     19.5  1635.    1634.  71365. 3269. 0     
 4 KEN     1950-1955 15-19  264.    18.5  1589.    1565.  69469. 3153. 0.169 
 5 KEN     1950-1955 20-24  486.    21.4  1428.    1364.  67421. 2792. 0.356 
 6 KEN     1950-1955 25-29  383.    20.4  1205.    1106.  64855. 2311. 0.347 
 7 KEN     1950-1955 30-34  269.    19.0  1033.     928.  62127. 1961. 0.289 
 8 KEN     1950-1955 35-39  166.    18.9   913.     803.  59239. 1716. 0.206 
 9 KEN     1950-1955 40-44   79.6   19.3   817.     711.  56114. 1528. 0.112 
10 KEN     1950-1955 45-49   25.6   19.9   693.     655.  52678. 1347. 0.0391
# ℹ 20 more rows
# ℹ 2 more variables: asdr <dbl>, pop_prop <dbl>

(sweden_data <- compute_pop_prop(sweden_data))

# A tibble: 30 × 12
   country period    age   births deaths py.men py.women     l_x    py    asfr
   <chr>   <chr>     <chr>  <dbl>  <dbl>  <dbl>    <dbl>   <dbl> <dbl>   <dbl>
 1 SWE     1950-1955 0-4     0     13.8   1490.    1411. 100000  2901. 0      
 2 SWE     1950-1955 5-9     0      1.30  1543.    1471.  97575. 3014. 0      
 3 SWE     1950-1955 10-14   0      1.22  1266.    1217.  97308. 2483. 0      
 4 SWE     1950-1955 15-19  40.8    1.58  1078.    1049.  97094. 2127. 0.0389 
 5 SWE     1950-1955 20-24 141.     2.26  1119.    1105.  96734. 2225. 0.128  
 6 SWE     1950-1955 25-29 161.     2.88  1305.    1285.  96224. 2590. 0.125  
 7 SWE     1950-1955 30-34 117.     3.61  1367.    1338.  95692. 2705. 0.0874 
 8 SWE     1950-1955 35-39  64.8    4.70  1366.    1333.  95042. 2699. 0.0486 
 9 SWE     1950-1955 40-44  21.8    6.81  1367.    1346.  94214. 2713. 0.0162 
10 SWE     1950-1955 45-49   1.70  10.0   1256.    1268.  93038. 2525. 0.00134
# ℹ 20 more rows
# ℹ 2 more variables: asdr <dbl>, pop_prop <dbl>
…
